// Jest Snapshot v1, https://goo.gl/fbAQLP

exports[`Header snapshot testing should Header render 1`] = `
<DocumentFragment>
  <header
    class="header"
  >
    <div
      class="container"
    >
      <a
        class="shopName"
        href="#"
      >
        My amazing shop
      </a>
      <nav
        class="cartContainer"
      >
        <a
          aria-current="page"
          class="homePage active"
          href="/"
        >
          <svg
            viewBox="0 0 24 24"
            xmlns="http://www.w3.org/2000/svg"
          >
            <path
              d="M10,20V14H14V20H19V12H22L12,3L2,12H5V20H10Z"
            />
          </svg>
        </a>
        <a
          class="IsFavouriteCounterContainer"
          href="/favourites"
        >
          <div
            class="starSvgBasic"
          >
            <svg
              viewBox="0 0 24 24"
              xmlns="http://www.w3.org/2000/svg"
            >
              <path
                d="M12,17.27L18.18,21L16.54,13.97L22,9.24L14.81,8.62L12,2L9.19,8.62L2,9.24L7.45,13.97L5.82,21L12,17.27Z"
              />
            </svg>
          </div>
          <p
            class="counter"
          >
            0
          </p>
        </a>
        <a
          class="cartCounterContainer"
          href="/cart"
        >
          <svg
            class="cartSvg"
            viewBox="0 0 24 24"
            xmlns="http://www.w3.org/2000/svg"
          >
            <path
              d="M17,18A2,2 0 0,1 19,20A2,2 0 0,1 17,22C15.89,22 15,21.1 15,20C15,18.89 15.89,18 17,18M1,2H4.27L5.21,4H20A1,1 0 0,1 21,5C21,5.17 20.95,5.34 20.88,5.5L17.3,11.97C16.96,12.58 16.3,13 15.55,13H8.1L7.2,14.63L7.17,14.75A0.25,0.25 0 0,0 7.42,15H19V17H7C5.89,17 5,16.1 5,15C5,14.65 5.09,14.32 5.24,14.04L6.6,11.59L3,4H1V2M7,18A2,2 0 0,1 9,20A2,2 0 0,1 7,22C5.89,22 5,21.1 5,20C5,18.89 5.89,18 7,18M16,11L18.78,6H6.14L8.5,11H16Z"
            />
          </svg>
          <p
            class="counter"
          >
            0
          </p>
        </a>
      </nav>
    </div>
  </header>
</DocumentFragment>
`;
